<?xml version="1.0" encoding="utf-8"?>
<!-- Generator: Adobe Illustrator 24.1.3, SVG Export Plug-In . SVG Version: 6.00 Build 0)  -->
<svg version="1.1" id="Layer_1" xmlns="http://www.w3.org/2000/svg" xmlns:xlink="http://www.w3.org/1999/xlink" x="0px" y="0px"
	 viewBox="0 0 141.7 52.5" style="enable-background:new 0 0 141.7 52.5;" xml:space="preserve">
<path d="M47.7,45.5l-13-31c-1-2.5-2.2-4.9-3.1-7.4c-1.2-3-1.2-6.3,2.1-7c1.6-0.4,4.7,1.7,5.6,3.5c5.6,12.4,10.7,25,16,37.6
	c0.8,1.8,1.6,3.5,2.6,5.6l6.5-5c-1-4.2-2.5-8-2.6-11.9c-0.1-2,1.9-4.6,3.6-6.2c3.5-3.3,9-2.6,12.2,1.1c3.8,4.3,3.4,9.4-1.2,16.3
	l7.1,5.7l15.2-35.9c1-2.5,1.7-5.3,3.3-7.3c1.4-1.7,4-3.7,5.7-3.3c3.3,0.8,3.2,4,1.9,7.1c-4.5,10.7-9,21.4-13.5,32.2
	c-0.7,1.6-1.3,3.3-2.4,6.1c2-1.4,3-2.2,4-2.9c4.8-3.6,11.2-3.5,15.9,0.3c8.8,6.8,9.1,6.7,18.3-0.1c2.1-1.4,4.5-2.3,6.9-2.7
	c0.8-0.2,2,1.3,3,2c-0.7,0.9-1.5,1.6-2.3,2.3c-2.6,1.5-5.5,2.6-7.8,4.4c-6.1,4.7-11.9,4.9-17.9,0c-7.2-5.8-9.5-5.8-16.7,0
	c-5.9,4.8-12,4.8-17.9-0.1c-6.8-5.7-9.6-5.7-16.3-0.2c-6.2,5.1-12.1,5.1-18.3,0.1c-6.8-5.6-9.5-5.6-16.3,0.1
	c-6,4.9-11.9,4.9-17.9,0.2c-2.4-1.8-5.2-2.9-7.8-4.5c-0.9-0.8-1.7-1.7-2.3-2.7c1.1-0.6,2.4-1.9,3.2-1.5c3.1,1.2,6.1,2.7,8.8,4.7
	c5,3.8,8.9,4.1,13.6,0.1C33.6,38.5,38.3,38.3,47.7,45.5z"/>
</svg>
