<?xml version="1.0" encoding="utf-8"?>
<!-- Generator: Adobe Illustrator 24.1.2, SVG Export Plug-In . SVG Version: 6.00 Build 0)  -->
<svg version="1.1" id="Laag_1" xmlns="http://www.w3.org/2000/svg" xmlns:xlink="http://www.w3.org/1999/xlink" x="0px" y="0px"
	 viewBox="0 0 333 406.5" style="enable-background:new 0 0 333 406.5;" xml:space="preserve">
<style type="text/css">
	.st0{fill:#FFFFFF;stroke:#000000;stroke-width:12;stroke-miterlimit:10;}
</style>
<path class="st0" d="M305.89,127.16c13.07-32.25-2.48-68.98-34.73-82.05c-7.51-3.04-15.54-4.61-23.65-4.61c-2,0-3.98,0.1-5.94,0.29
	c-14.75-31.51-52.25-45.11-83.76-30.36c-3.25,1.52-6.36,3.31-9.3,5.36c-28.55-19.88-67.82-12.85-87.7,15.7
	c-11.33,16.27-14.34,36.93-8.12,55.76c-33.83,8.14-54.65,42.17-46.5,76c6.82,28.33,32.18,48.29,61.32,48.25h0.9
	c11.77,11.56,27.61,18.02,44.1,18c3.97-0.01,7.92-0.38,11.82-1.12c32.28,18.34,72.04,17.39,103.42-2.45
	c27.89,20.8,67.37,15.05,88.16-12.85c19.96-26.77,15.57-64.46-10.01-85.92H305.89z"/>
<polyline class="st0" points="143,136.12 142.68,287.88 102.9,287.79 165.94,397.5 229.45,288.06 189.68,287.98 190,136.22 "/>
</svg>
