<?xml version="1.0" encoding="utf-8"?>
<!-- Generator: Adobe Illustrator 24.1.2, SVG Export Plug-In . SVG Version: 6.00 Build 0)  -->
<svg version="1.1" id="Laag_1" xmlns="http://www.w3.org/2000/svg" xmlns:xlink="http://www.w3.org/1999/xlink" x="0px" y="0px"
	 viewBox="0 0 99.85 184.13" style="enable-background:new 0 0 99.85 184.13;" xml:space="preserve">
<style type="text/css">
	.st0{fill:#FFFFFF;stroke:#000000;stroke-width:8;stroke-miterlimit:10;}
	.st1{fill:#FFFFFF;stroke:#000000;stroke-width:5;stroke-linecap:round;stroke-miterlimit:10;}
</style>
<path class="st0" d="M14.25,180.13h73c0,0,11.28-80.27,8-109.5c-10-89-82-89-91,1C2.13,92.8,14.25,180.13,14.25,180.13z"/>
<path class="st1" d="M50.25,71.63c-0.48,28.09-0.78,58.6-0.9,90"/>
<path class="st1" d="M50.13,4c0,4.69,3.33,6.69,3.33,16.76c0,6.37-5.42,14.33-6.31,21.04c-0.76,5.75,2.98,10.47,2.98,13.64"/>
</svg>
